Numerical_and_Electrical_Experiment/THR2023063114/E7/simulation/qsim/2023063114THR.msim.vcd
$comment
	File created using the following command:
		vcd file 2023063114THR.msim.vcd -direction
$end
$date
	Tue Nov 12 14:20:53 2024
$end
$version
	ModelSim Version 10.1d
$end
$timescale
	1ps
$end
$scope module CNT24_vlg_vec_tst $end
$var reg 1 ! clr $end
$var reg 1 " cp $end
$var wire 1 # Q0 $end
$var wire 1 $ Q1 $end
$var wire 1 % Q2 $end
$var wire 1 & Q3 $end
$var wire 1 ' Q4 $end
$var wire 1 ( Q5 $end
$var wire 1 ) Q6 $end
$var wire 1 * Q7 $end
$var wire 1 + sampler $end
$scope module i1 $end
$var wire 1 , gnd $end
$var wire 1 - vcc $end
$var wire 1 . unknown $end
$var tri1 1 / devclrn $end
$var tri1 1 0 devpor $end
$var tri1 1 1 devoe $end
$var wire 1 2 Q0~output_o $end
$var wire 1 3 Q1~output_o $end
$var wire 1 4 Q2~output_o $end
$var wire 1 5 Q3~output_o $end
$var wire 1 6 Q4~output_o $end
$var wire 1 7 Q5~output_o $end
$var wire 1 8 Q6~output_o $end
$var wire 1 9 Q7~output_o $end
$var wire 1 : cp~input_o $end
$var wire 1 ; inst|6~0_combout $end
$var wire 1 < clr~input_o $end
$var wire 1 = inst|6~q $end
$var wire 1 > inst1|10~combout $end
$var wire 1 ? inst1|6~q $end
$var wire 1 @ inst1|12~combout $end
$var wire 1 A inst1|8~q $end
$var wire 1 B inst1|13~1_combout $end
$var wire 1 C inst1|13~0_combout $end
$var wire 1 D inst1|9~q $end
$var wire 1 E inst1|11~combout $end
$var wire 1 F inst1|7~q $end
$var wire 1 G inst|12~combout $end
$var wire 1 H inst|8~q $end
$var wire 1 I inst|9~0_combout $end
$var wire 1 J inst|9~q $end
$var wire 1 K inst|11~combout $end
$var wire 1 L inst|7~q $end
$upscope $end
$upscope $end
$enddefinitions $end
#0
$dumpvars
1!
0"
0#
0$
0%
0&
0'
0(
0)
0*
x+
0,
1-
x.
1/
10
11
02
03
04
05
06
07
08
09
0:
1;
1<
0=
0>
0?
0@
0A
0B
0C
0D
0E
0F
0G
0H
0I
0J
0K
0L
$end
#10000
1"
1:
0+
1=
0;
1K
12
1#
#20000
0"
0:
1+
#30000
1"
1:
0+
1L
0=
1;
13
02
1$
0#
#40000
0"
0:
1+
#50000
1"
1:
0+
1=
0;
1G
0K
12
1#
#60000
0"
0:
1+
#70000
1"
1:
0+
0L
1H
0=
1;
03
14
02
0$
1%
0#
#80000
0"
0:
1+
#90000
1"
1:
0+
1=
0;
1K
12
1#
#100000
0"
0:
1+
#110000
1"
1:
0+
1L
0=
1;
13
02
1$
0#
#120000
0"
0:
1+
#130000
1"
1:
0+
1=
0;
0G
1I
0K
12
1#
#140000
0"
0:
1+
#150000
1"
1:
0+
0L
1J
0H
0=
1;
03
15
04
02
0$
1&
0%
0#
#160000
0"
0:
1+
#170000
1"
1:
0+
1=
0;
1>
0I
12
1#
#180000
0"
0:
1+
#190000
1"
1:
0+
0J
1?
0=
1;
05
16
02
0&
1'
0#
#200000
0"
0:
1+
#210000
1"
1:
0+
1=
0;
1K
12
1#
#220000
0"
0:
1+
#230000
1"
1:
0+
1L
0=
1;
13
02
1$
0#
#240000
0"
0:
1+
#250000
1"
1:
0+
1=
0;
1G
0K
12
1#
#260000
0"
0:
1+
#270000
1"
1:
0+
0L
1H
0=
1;
03
14
02
0$
1%
0#
#280000
0"
0:
1+
#290000
1"
1:
0+
1=
0;
1K
12
1#
#300000
0"
0:
1+
#310000
1"
1:
0+
1L
0=
1;
13
02
1$
0#
#320000
0"
0:
1+
#330000
1"
1:
0+
1=
0;
0G
1I
0K
12
1#
#340000
0"
0:
1+
#350000
1"
1:
0+
0L
1J
0H
0=
1B
1;
03
15
04
02
0$
1&
0%
0#
#360000
0"
0:
1+
#370000
1"
1:
0+
1=
0;
0>
1E
0I
12
1#
#380000
0"
0:
1+
#390000
1"
1:
0+
0J
1F
0?
0=
0B
1;
05
17
06
02
0&
1(
0'
0#
#400000
0"
0:
1+
#410000
1"
1:
0+
1=
0;
1K
12
1#
#420000
0"
0:
1+
#430000
1"
1:
0+
1L
0=
1;
13
02
1$
0#
#440000
0"
0:
1+
#450000
1"
1:
0+
1=
0;
0E
0K
12
1#
#460000
0"
0:
1+
#470000
1"
1:
0+
0L
0F
0=
1;
03
07
02
0$
0(
0#
#480000
0"
0:
1+
#490000
1"
1:
0+
1=
0;
1K
12
1#
#500000
0"
0:
1+
#510000
1"
1:
0+
1L
0=
1;
13
02
1$
0#
#520000
0"
0:
1+
#530000
1"
1:
0+
1=
0;
1G
0K
12
1#
#540000
0"
0:
1+
#550000
1"
1:
0+
0L
1H
0=
1;
03
14
02
0$
1%
0#
#560000
0"
0:
1+
#570000
1"
1:
0+
1=
0;
1K
12
1#
#580000
0"
0:
1+
#590000
1"
1:
0+
1L
0=
1;
13
02
1$
0#
#600000
0"
0:
1+
#610000
1"
1:
0+
1=
0;
0G
1I
0K
12
1#
#620000
0"
0:
1+
#630000
1"
1:
0+
0L
1J
0H
0=
1;
03
15
04
02
0$
1&
0%
0#
#640000
0"
0:
1+
#650000
1"
1:
0+
1=
0;
1>
0I
12
1#
#660000
0"
0:
1+
#670000
1"
1:
0+
0J
1?
0=
1;
05
16
02
0&
1'
0#
#680000
0"
0:
1+
#690000
1"
1:
0+
1=
0;
1K
12
1#
#700000
0"
0:
1+
#710000
1"
1:
0+
1L
0=
1;
13
02
1$
0#
#720000
0"
0:
1+
#730000
1"
1:
0+
1=
0;
1G
0K
12
1#
#740000
0"
0:
1+
#750000
1"
1:
0+
0L
1H
0=
1;
03
14
02
0$
1%
0#
#760000
0"
0:
1+
#770000
1"
1:
0+
1=
0;
1K
12
1#
#780000
0"
0:
1+
#790000
1"
1:
0+
1L
0=
1;
13
02
1$
0#
#800000
0"
0:
1+
#810000
1"
1:
0+
1=
0;
0G
1I
0K
12
1#
#820000
0"
0:
1+
#830000
1"
1:
0+
0L
1J
0H
0=
1B
1;
03
15
04
02
0$
1&
0%
0#
#840000
0"
0:
1+
#850000
1"
1:
0+
1=
0;
0>
1E
0I
12
1#
#860000
0"
0:
1+
#870000
1"
1:
0+
0J
1F
0?
0=
0B
1;
05
17
06
02
0&
1(
0'
0#
#880000
0"
0:
1+
#890000
1"
1:
0+
1=
0;
1K
12
1#
#900000
0"
0:
1+
#910000
1"
1:
0+
1L
0=
1;
13
02
1$
0#
#920000
0"
0:
1+
#930000
1"
1:
0+
1=
0;
0E
0K
12
1#
#940000
0"
0:
1+
#950000
1"
1:
0+
0L
0F
0=
1;
03
07
02
0$
0(
0#
#960000
0"
0:
1+
#970000
1"
1:
0+
1=
0;
1K
12
1#
#980000
0"
0:
1+
#990000
1"
1:
0+
1L
0=
1;
13
02
1$
0#
