Numerical_and_Electrical_Experiment/THR2023063114/E8/simulation/qsim/THR2023063114.msim.vcd
$comment
	File created using the following command:
		vcd file THR2023063114.msim.vcd -direction
$end
$date
	Tue Nov 19 15:21:54 2024
$end
$version
	ModelSim Version 10.1d
$end
$timescale
	1ps
$end
$scope module THR2023063114_vlg_vec_tst $end
$var reg 1 ! CLK $end
$var reg 1 " RES $end
$var wire 1 # SOUT $end
$var wire 1 $ SYNC $end
$var wire 1 % sampler $end
$scope module i1 $end
$var wire 1 & gnd $end
$var wire 1 ' vcc $end
$var wire 1 ( unknown $end
$var tri1 1 ) devclrn $end
$var tri1 1 * devpor $end
$var tri1 1 + devoe $end
$var wire 1 , ~QUARTUS_CREATED_GND~I_combout $end
$var wire 1 - CLK~input_o $end
$var wire 1 . CLK~inputCLKENA0_outclk $end
$var wire 1 / inst|Add0~85_sumout $end
$var wire 1 0 inst|Count~0_combout $end
$var wire 1 1 RES~input_o $end
$var wire 1 2 inst|Add0~86 $end
$var wire 1 3 inst|Add0~101_sumout $end
$var wire 1 4 inst|Add0~102 $end
$var wire 1 5 inst|Add0~97_sumout $end
$var wire 1 6 inst|Add0~98 $end
$var wire 1 7 inst|Add0~93_sumout $end
$var wire 1 8 inst|Add0~94 $end
$var wire 1 9 inst|Add0~5_sumout $end
$var wire 1 : inst|Add0~6 $end
$var wire 1 ; inst|Add0~1_sumout $end
$var wire 1 < inst|Add0~2 $end
$var wire 1 = inst|Add0~29_sumout $end
$var wire 1 > inst|Add0~30 $end
$var wire 1 ? inst|Add0~25_sumout $end
$var wire 1 @ inst|Add0~26 $end
$var wire 1 A inst|Add0~21_sumout $end
$var wire 1 B inst|Add0~22 $end
$var wire 1 C inst|Add0~17_sumout $end
$var wire 1 D inst|Add0~18 $end
$var wire 1 E inst|Add0~13_sumout $end
$var wire 1 F inst|Add0~14 $end
$var wire 1 G inst|Add0~9_sumout $end
$var wire 1 H inst|Add0~10 $end
$var wire 1 I inst|Add0~53_sumout $end
$var wire 1 J inst|Add0~54 $end
$var wire 1 K inst|Add0~49_sumout $end
$var wire 1 L inst|Add0~50 $end
$var wire 1 M inst|Add0~45_sumout $end
$var wire 1 N inst|Add0~46 $end
$var wire 1 O inst|Add0~41_sumout $end
$var wire 1 P inst|Add0~42 $end
$var wire 1 Q inst|Add0~105_sumout $end
$var wire 1 R inst|Add0~106 $end
$var wire 1 S inst|Add0~89_sumout $end
$var wire 1 T inst|Add0~90 $end
$var wire 1 U inst|Add0~37_sumout $end
$var wire 1 V inst|Add0~38 $end
$var wire 1 W inst|Add0~33_sumout $end
$var wire 1 X inst|Add0~34 $end
$var wire 1 Y inst|Add0~77_sumout $end
$var wire 1 Z inst|Add0~78 $end
$var wire 1 [ inst|Add0~73_sumout $end
$var wire 1 \ inst|Add0~74 $end
$var wire 1 ] inst|Add0~69_sumout $end
$var wire 1 ^ inst|Add0~70 $end
$var wire 1 _ inst|Add0~65_sumout $end
$var wire 1 ` inst|Add0~66 $end
$var wire 1 a inst|Add0~61_sumout $end
$var wire 1 b inst|Add0~62 $end
$var wire 1 c inst|Add0~57_sumout $end
$var wire 1 d inst|Equal0~3_combout $end
$var wire 1 e inst|Add0~58 $end
$var wire 1 f inst|Add0~125_sumout $end
$var wire 1 g inst|Add0~126 $end
$var wire 1 h inst|Add0~121_sumout $end
$var wire 1 i inst|Add0~122 $end
$var wire 1 j inst|Add0~117_sumout $end
$var wire 1 k inst|Add0~118 $end
$var wire 1 l inst|Add0~113_sumout $end
$var wire 1 m inst|Add0~114 $end
$var wire 1 n inst|Add0~109_sumout $end
$var wire 1 o inst|Equal0~5_combout $end
$var wire 1 p inst|Equal0~2_combout $end
$var wire 1 q inst|Equal0~0_combout $end
$var wire 1 r inst|Add0~110 $end
$var wire 1 s inst|Add0~81_sumout $end
$var wire 1 t inst|Equal0~4_combout $end
$var wire 1 u inst|Equal0~1_combout $end
$var wire 1 v inst|Equal0~6_combout $end
$var wire 1 w inst|clk_1MHz~0_combout $end
$var wire 1 x inst|clk_1MHz~q $end
$var wire 1 y inst1|index[0]~2_combout $end
$var wire 1 z inst1|index[1]~1_combout $end
$var wire 1 { inst1|index[1]~feeder_combout $end
$var wire 1 | inst1|index[1]~DUPLICATE_q $end
$var wire 1 } inst1|index[2]~0_combout $end
$var wire 1 ~ inst1|index[2]~feeder_combout $end
$var wire 1 !! inst1|index[0]~DUPLICATE_q $end
$var wire 1 "! inst1|Mux0~0_combout $end
$var wire 1 #! inst1|sout~q $end
$var wire 1 $! inst1|Equal0~0_combout $end
$var wire 1 %! inst1|sync~q $end
$var wire 1 &! inst|Count [31] $end
$var wire 1 '! inst|Count [30] $end
$var wire 1 (! inst|Count [29] $end
$var wire 1 )! inst|Count [28] $end
$var wire 1 *! inst|Count [27] $end
$var wire 1 +! inst|Count [26] $end
$var wire 1 ,! inst|Count [25] $end
$var wire 1 -! inst|Count [24] $end
$var wire 1 .! inst|Count [23] $end
$var wire 1 /! inst|Count [22] $end
$var wire 1 0! inst|Count [21] $end
$var wire 1 1! inst|Count [20] $end
$var wire 1 2! inst|Count [19] $end
$var wire 1 3! inst|Count [18] $end
$var wire 1 4! inst|Count [17] $end
$var wire 1 5! inst|Count [16] $end
$var wire 1 6! inst|Count [15] $end
$var wire 1 7! inst|Count [14] $end
$var wire 1 8! inst|Count [13] $end
$var wire 1 9! inst|Count [12] $end
$var wire 1 :! inst|Count [11] $end
$var wire 1 ;! inst|Count [10] $end
$var wire 1 <! inst|Count [9] $end
$var wire 1 =! inst|Count [8] $end
$var wire 1 >! inst|Count [7] $end
$var wire 1 ?! inst|Count [6] $end
$var wire 1 @! inst|Count [5] $end
$var wire 1 A! inst|Count [4] $end
$var wire 1 B! inst|Count [3] $end
$var wire 1 C! inst|Count [2] $end
$var wire 1 D! inst|Count [1] $end
$var wire 1 E! inst|Count [0] $end
$var wire 1 F! inst1|index [2] $end
$var wire 1 G! inst1|index [1] $end
$var wire 1 H! inst1|index [0] $end
$upscope $end
$upscope $end
$enddefinitions $end
#0
$dumpvars
0!
0"
0#
1$
x%
0&
1'
x(
1)
1*
1+
0,
0-
0.
1/
10
01
02
03
04
05
06
07
08
09
0:
0;
0<
0=
0>
0?
0@
0A
0B
0C
0D
0E
0F
0G
0H
0I
0J
0K
0L
0M
0N
0O
0P
0Q
0R
0S
0T
0U
0V
0W
0X
0Y
0Z
0[
0\
0]
0^
0_
0`
0a
0b
0c
1d
0e
0f
0g
0h
0i
0j
0k
0l
0m
0n
1o
1p
0q
0r
0s
0t
1u
0v
0w
0x
1y
0z
0{
0|
0}
0~
0!!
0"!
0#!
1$!
0%!
0E!
0D!
0C!
0B!
0A!
0@!
0?!
0>!
0=!
0<!
0;!
0:!
09!
08!
07!
06!
05!
04!
03!
02!
01!
00!
0/!
0.!
0-!
0,!
0+!
0*!
0)!
0(!
0'!
0&!
0H!
0G!
0F!
$end
#500
1!
1-
1.
0%
1E!
12
0/
13
00
#1000
0!
0-
0.
1%
#1500
1!
1-
1.
0%
1D!
0E!
14
03
02
1/
15
04
13
10
05
#2000
0!
0-
0.
1%
#2500
1!
1-
1.
0%
1E!
12
0/
14
03
00
15
#3000
0!
0-
0.
1%
#3500
1!
1-
1.
0%
1C!
0D!
0E!
16
05
04
13
02
1/
17
06
15
03
10
07
#4000
0!
0-
0.
1%
#4500
1!
1-
1.
0%
1E!
12
0/
13
00
#5000
0!
0-
0.
1%
#5500
1!
1-
1.
0%
1D!
0E!
14
03
02
1/
16
05
04
13
10
17
06
15
07
#6000
0!
0-
0.
1%
#6500
1!
1-
1.
0%
1E!
12
0/
14
03
00
16
05
17
#7000
0!
0-
0.
1%
#7500
1!
1-
1.
0%
1B!
0C!
0D!
0E!
18
07
1t
06
15
04
13
02
1/
19
08
17
05
03
10
09
#8000
0!
0-
0.
1%
#8500
1!
1-
1.
0%
1E!
12
0/
0t
13
00
#9000
0!
0-
0.
1%
#9500
1!
1-
1.
0%
1D!
0E!
14
03
02
1/
15
04
13
10
05
#10000
0!
0-
0.
1%
#10500
1!
1-
1.
0%
1E!
12
0/
14
03
00
15
#11000
0!
0-
0.
1%
#11500
1!
1-
1.
0%
1C!
0D!
0E!
16
05
04
13
02
1/
18
07
06
15
03
10
19
08
17
09
#12000
0!
0-
0.
1%
#12500
1!
1-
1.
0%
1E!
12
0/
13
00
#13000
0!
0-
0.
1%
#13500
1!
1-
1.
0%
1D!
0E!
14
03
02
1/
16
05
04
13
10
18
07
06
15
19
08
17
09
#14000
0!
0-
0.
1%
#14500
1!
1-
1.
0%
1E!
12
0/
14
03
00
16
05
18
07
19
#15000
0!
0-
0.
1%
#15500
1!
1-
1.
0%
1A!
0B!
0C!
0D!
0E!
1:
09
1q
08
17
06
15
04
13
02
1/
1;
0:
19
07
05
03
10
0;
#16000
0!
0-
0.
1%
#16500
1!
1-
1.
0%
1E!
12
0/
13
00
#17000
0!
0-
0.
1%
#17500
1!
1-
1.
0%
1D!
0E!
14
03
02
1/
15
04
13
10
05
#18000
0!
0-
0.
1%
#18500
1!
1-
1.
0%
1E!
12
0/
14
03
00
15
#19000
0!
0-
0.
1%
#19500
1!
1-
1.
0%
1C!
0D!
0E!
16
05
04
13
02
1/
17
06
15
03
10
07
#20000
0!
0-
0.
1%
#20500
1!
1-
1.
0%
1E!
12
0/
13
00
#21000
0!
0-
0.
1%
#21500
1!
1-
1.
0%
1D!
0E!
14
03
02
1/
16
05
04
13
10
17
06
15
07
#22000
0!
0-
0.
1%
#22500
1!
1-
1.
0%
1E!
12
0/
14
03
00
16
05
17
#23000
0!
0-
0.
1%
#23500
1!
1-
1.
0%
1B!
0C!
0D!
0E!
18
07
1t
06
15
04
13
02
1/
1:
09
08
17
05
03
1v
10
1;
0:
19
00
1w
0;
#24000
0!
0-
0.
1%
#24500
1!
1-
1.
0%
1x
0A!
0B!
0w
09
0q
07
0t
0v
10
1w
1%!
1!!
1H!
1"!
0y
1z
0$
1{
#25000
0!
0-
0.
1%
#25500
1!
1-
1.
0%
1E!
12
0/
13
00
#26000
0!
0-
0.
1%
#26500
1!
1-
1.
0%
1D!
0E!
14
03
02
1/
15
04
13
10
05
#27000
0!
0-
0.
1%
#27500
1!
1-
1.
0%
1E!
12
0/
14
03
00
15
#28000
0!
0-
0.
1%
#28500
1!
1-
1.
0%
1C!
0D!
0E!
16
05
04
13
02
1/
17
06
15
03
10
07
#29000
0!
0-
0.
1%
#29500
1!
1-
1.
0%
1E!
12
0/
13
00
#30000
0!
0-
0.
1%
#30500
1!
1-
1.
0%
1D!
0E!
14
03
02
1/
16
05
04
13
10
17
06
15
07
#31000
0!
0-
0.
1%
#31500
1!
1-
1.
0%
1E!
12
0/
14
03
00
16
05
17
#32000
0!
0-
0.
1%
#32500
1!
1-
1.
0%
1B!
0C!
0D!
0E!
18
07
1t
06
15
04
13
02
1/
19
08
17
05
03
10
09
#33000
0!
0-
0.
1%
#33500
1!
1-
1.
0%
1E!
12
0/
0t
13
00
#34000
0!
0-
0.
1%
#34500
1!
1-
1.
0%
1D!
0E!
14
03
02
1/
15
04
13
10
05
#35000
0!
0-
0.
1%
#35500
1!
1-
1.
0%
1E!
12
0/
14
03
00
15
#36000
0!
0-
0.
1%
#36500
1!
1-
1.
0%
1C!
0D!
0E!
16
05
04
13
02
1/
18
07
06
15
03
10
19
08
17
09
#37000
0!
0-
0.
1%
#37500
1!
1-
1.
0%
1E!
12
0/
13
00
#38000
0!
0-
0.
1%
#38500
1!
1-
1.
0%
1D!
0E!
14
03
02
1/
16
05
04
13
10
18
07
06
15
19
08
17
09
#39000
0!
0-
0.
1%
#39500
1!
1-
1.
0%
1E!
12
0/
14
03
00
16
05
18
07
19
#40000
0!
0-
0.
1%
#40500
1!
1-
1.
0%
1A!
0B!
0C!
0D!
0E!
1:
09
1q
08
17
06
15
04
13
02
1/
1;
0:
19
07
05
03
10
0;
#41000
0!
0-
0.
1%
#41500
1!
1-
1.
0%
1E!
12
0/
13
00
#42000
0!
0-
0.
1%
#42500
1!
1-
1.
0%
1D!
0E!
14
03
02
1/
15
04
13
10
05
#43000
0!
0-
0.
1%
#43500
1!
1-
1.
0%
1E!
12
0/
14
03
00
15
#44000
0!
0-
0.
1%
#44500
1!
1-
1.
0%
1C!
0D!
0E!
16
05
04
13
02
1/
17
06
15
03
10
07
#45000
0!
0-
0.
1%
#45500
1!
1-
1.
0%
1E!
12
0/
13
00
#46000
0!
0-
0.
1%
#46500
1!
1-
1.
0%
1D!
0E!
14
03
02
1/
16
05
04
13
10
17
06
15
07
#47000
0!
0-
0.
1%
#47500
1!
1-
1.
0%
1E!
12
0/
14
03
00
16
05
17
#48000
0!
0-
0.
1%
#48500
1!
1-
1.
0%
1B!
0C!
0D!
0E!
18
07
1t
06
15
04
13
02
1/
1:
09
08
17
05
03
1v
10
1;
0:
19
00
0w
0;
#49000
0!
0-
0.
1%
#49500
1!
1-
1.
0%
0x
0A!
0B!
1w
09
0q
07
0t
0v
10
0w
#50000
0!
0-
0.
1%
#50500
1!
1-
1.
0%
1E!
12
0/
13
00
#51000
0!
0-
0.
1%
#51500
1!
1-
1.
0%
1D!
0E!
14
03
02
1/
15
04
13
10
05
#52000
0!
0-
0.
1%
#52500
1!
1-
1.
0%
1E!
12
0/
14
03
00
15
#53000
0!
0-
0.
1%
#53500
1!
1-
1.
0%
1C!
0D!
0E!
16
05
04
13
02
1/
17
06
15
03
10
07
#54000
0!
0-
0.
1%
#54500
1!
1-
1.
0%
1E!
12
0/
13
00
#55000
0!
0-
0.
1%
#55500
1!
1-
1.
0%
1D!
0E!
14
03
02
1/
16
05
04
13
10
17
06
15
07
#56000
0!
0-
0.
1%
#56500
1!
1-
1.
0%
1E!
12
0/
14
03
00
16
05
17
#57000
0!
0-
0.
1%
#57500
1!
1-
1.
0%
1B!
0C!
0D!
0E!
18
07
1t
06
15
04
13
02
1/
19
08
17
05
03
10
09
#58000
0!
0-
0.
1%
#58500
1!
1-
1.
0%
1E!
12
0/
0t
13
00
#59000
0!
0-
0.
1%
#59500
1!
1-
1.
0%
1D!
0E!
14
03
02
1/
15
04
13
10
05
#60000
0!
0-
0.
1%
#60500
1!
1-
1.
0%
1E!
12
0/
14
03
00
15
#61000
0!
0-
0.
1%
#61500
1!
1-
1.
0%
1C!
0D!
0E!
16
05
04
13
02
1/
18
07
06
15
03
10
19
08
17
09
#62000
0!
0-
0.
1%
#62500
1!
1-
1.
0%
1E!
12
0/
13
00
#63000
0!
0-
0.
1%
#63500
1!
1-
1.
0%
1D!
0E!
14
03
02
1/
16
05
04
13
10
18
07
06
15
19
08
17
09
#64000
0!
0-
0.
1%
#64500
1!
1-
1.
0%
1E!
12
0/
14
03
00
16
05
18
07
19
#65000
0!
0-
0.
1%
#65500
1!
1-
1.
0%
1A!
0B!
0C!
0D!
0E!
1:
09
1q
08
17
06
15
04
13
02
1/
1;
0:
19
07
05
03
10
0;
#66000
0!
0-
0.
1%
#66500
1!
1-
1.
0%
1E!
12
0/
13
00
#67000
0!
0-
0.
1%
#67500
1!
1-
1.
0%
1D!
0E!
14
03
02
1/
15
04
13
10
05
#68000
0!
0-
0.
1%
#68500
1!
1-
1.
0%
1E!
12
0/
14
03
00
15
#69000
0!
0-
0.
1%
#69500
1!
1-
1.
0%
1C!
0D!
0E!
16
05
04
13
02
1/
17
06
15
03
10
07
#70000
0!
0-
0.
1%
#70500
1!
1-
1.
0%
1E!
12
0/
13
00
#71000
0!
0-
0.
1%
#71500
1!
1-
1.
0%
1D!
0E!
14
03
02
1/
16
05
04
13
10
17
06
15
07
#72000
0!
0-
0.
1%
#72500
1!
1-
1.
0%
1E!
12
0/
14
03
00
16
05
17
#73000
0!
0-
0.
1%
#73500
1!
1-
1.
0%
1B!
0C!
0D!
0E!
18
07
1t
06
15
04
13
02
1/
1:
09
08
17
05
03
1v
10
1;
0:
19
00
1w
0;
#74000
0!
0-
0.
1%
#74500
1!
1-
1.
0%
1x
0A!
0B!
0w
09
0q
07
0t
0v
10
1w
1G!
0!!
1|
0H!
1#!
1y
1#
#75000
0!
0-
0.
1%
#75500
1!
1-
1.
0%
1E!
12
0/
13
00
#76000
0!
0-
0.
1%
#76500
1!
1-
1.
0%
1D!
0E!
14
03
02
1/
15
04
13
10
05
#77000
0!
0-
0.
1%
#77500
1!
1-
1.
0%
1E!
12
0/
14
03
00
15
#78000
0!
0-
0.
1%
#78500
1!
1-
1.
0%
1C!
0D!
0E!
16
05
04
13
02
1/
17
06
15
03
10
07
#79000
0!
0-
0.
1%
#79500
1!
1-
1.
0%
1E!
12
0/
13
00
#80000
0!
0-
0.
1%
#80500
1!
1-
1.
0%
1D!
0E!
14
03
02
1/
16
05
04
13
10
17
06
15
07
#81000
0!
0-
0.
1%
#81500
1!
1-
1.
0%
1E!
12
0/
14
03
00
16
05
17
#82000
0!
0-
0.
1%
#82500
1!
1-
1.
0%
1B!
0C!
0D!
0E!
18
07
1t
06
15
04
13
02
1/
19
08
17
05
03
10
09
#83000
0!
0-
0.
1%
#83500
1!
1-
1.
0%
1E!
12
0/
0t
13
00
#84000
0!
0-
0.
1%
#84500
1!
1-
1.
0%
1D!
0E!
14
03
02
1/
15
04
13
10
05
#85000
0!
0-
0.
1%
#85500
1!
1-
1.
0%
1E!
12
0/
14
03
00
15
#86000
0!
0-
0.
1%
#86500
1!
1-
1.
0%
1C!
0D!
0E!
16
05
04
13
02
1/
18
07
06
15
03
10
19
08
17
09
#87000
0!
0-
0.
1%
#87500
1!
1-
1.
0%
1E!
12
0/
13
00
#88000
0!
0-
0.
1%
#88500
1!
1-
1.
0%
1D!
0E!
14
03
02
1/
16
05
04
13
10
18
07
06
15
19
08
17
09
#89000
0!
0-
0.
1%
#89500
1!
1-
1.
0%
1E!
12
0/
14
03
00
16
05
18
07
19
#90000
0!
0-
0.
1%
#90500
1!
1-
1.
0%
1A!
0B!
0C!
0D!
0E!
1:
09
1q
08
17
06
15
04
13
02
1/
1;
0:
19
07
05
03
10
0;
#91000
0!
0-
0.
1%
#91500
1!
1-
1.
0%
1E!
12
0/
13
00
#92000
0!
0-
0.
1%
#92500
1!
1-
1.
0%
1D!
0E!
14
03
02
1/
15
04
13
10
05
#93000
0!
0-
0.
1%
#93500
1!
1-
1.
0%
1E!
12
0/
14
03
00
15
#94000
0!
0-
0.
1%
#94500
1!
1-
1.
0%
1C!
0D!
0E!
16
05
04
13
02
1/
17
06
15
03
10
07
#95000
0!
0-
0.
1%
#95500
1!
1-
1.
0%
1E!
12
0/
13
00
#96000
0!
0-
0.
1%
#96500
1!
1-
1.
0%
1D!
0E!
14
03
02
1/
16
05
04
13
10
17
06
15
07
#97000
0!
0-
0.
1%
#97500
1!
1-
1.
0%
1E!
12
0/
14
03
00
16
05
17
#98000
0!
0-
0.
1%
#98500
1!
1-
1.
0%
1B!
0C!
0D!
0E!
18
07
1t
06
15
04
13
02
1/
1:
09
08
17
05
03
1v
10
1;
0:
19
00
0w
0;
#99000
0!
0-
0.
1%
#99500
1!
1-
1.
0%
0x
0A!
0B!
1w
09
0q
07
0t
0v
10
0w
#100000
0!
0-
0.
1%
#100500
1!
1-
1.
0%
1E!
12
0/
13
00
#101000
0!
0-
0.
1%
#101500
1!
1-
1.
0%
1D!
0E!
14
03
02
1/
15
04
13
10
05
#102000
0!
0-
0.
1%
#102500
1!
1-
1.
0%
1E!
12
0/
14
03
00
15
#103000
0!
0-
0.
1%
#103500
1!
1-
1.
0%
1C!
0D!
0E!
16
05
04
13
02
1/
17
06
15
03
10
07
#104000
0!
0-
0.
1%
#104500
1!
1-
1.
0%
1E!
12
0/
13
00
#105000
0!
0-
0.
1%
#105500
1!
1-
1.
0%
1D!
0E!
14
03
02
1/
16
05
04
13
10
17
06
15
07
#106000
0!
0-
0.
1%
#106500
1!
1-
1.
0%
1E!
12
0/
14
03
00
16
05
17
#107000
0!
0-
0.
1%
#107500
1!
1-
1.
0%
1B!
0C!
0D!
0E!
18
07
1t
06
15
04
13
02
1/
19
08
17
05
03
10
09
#108000
0!
0-
0.
1%
#108500
1!
1-
1.
0%
1E!
12
0/
0t
13
00
#109000
0!
0-
0.
1%
#109500
1!
1-
1.
0%
1D!
0E!
14
03
02
1/
15
04
13
10
05
#110000
0!
0-
0.
1%
#110500
1!
1-
1.
0%
1E!
12
0/
14
03
00
15
#111000
0!
0-
0.
1%
#111500
1!
1-
1.
0%
1C!
0D!
0E!
16
05
04
13
02
1/
18
07
06
15
03
10
19
08
17
09
#112000
0!
0-
0.
1%
#112500
1!
1-
1.
0%
1E!
12
0/
13
00
#113000
0!
0-
0.
1%
#113500
1!
1-
1.
0%
1D!
0E!
14
03
02
1/
16
05
04
13
10
18
07
06
15
19
08
17
09
#114000
0!
0-
0.
1%
#114500
1!
1-
1.
0%
1E!
12
0/
14
03
00
16
05
18
07
19
#115000
0!
0-
0.
1%
#115500
1!
1-
1.
0%
1A!
0B!
0C!
0D!
0E!
1:
09
1q
08
17
06
15
04
13
02
1/
1;
0:
19
07
05
03
10
0;
#116000
0!
0-
0.
1%
#116500
1!
1-
1.
0%
1E!
12
0/
13
00
#117000
0!
0-
0.
1%
#117500
1!
1-
1.
0%
1D!
0E!
14
03
02
1/
15
04
13
10
05
#118000
0!
0-
0.
1%
#118500
1!
1-
1.
0%
1E!
12
0/
14
03
00
15
#119000
0!
0-
0.
1%
#119500
1!
1-
1.
0%
1C!
0D!
0E!
16
05
04
13
02
1/
17
06
15
03
10
07
#120000
0!
0-
0.
1%
#120500
1!
1-
1.
0%
1E!
12
0/
13
00
#121000
0!
0-
0.
1%
#121500
1!
1-
1.
0%
1D!
0E!
14
03
02
1/
16
05
04
13
10
17
06
15
07
#122000
0!
0-
0.
1%
#122500
1!
1-
1.
0%
1E!
12
0/
14
03
00
16
05
17
#123000
0!
0-
0.
1%
#123500
1!
1-
1.
0%
1B!
0C!
0D!
0E!
18
07
1t
06
15
04
13
02
1/
1:
09
08
17
05
03
1v
10
1;
0:
19
00
1w
0;
#124000
0!
0-
0.
1%
#124500
1!
1-
1.
0%
1x
0A!
0B!
0w
09
0q
07
0t
0v
10
1w
1!!
1H!
0"!
0y
0z
1}
0{
1~
#125000
0!
0-
0.
1%
#125500
1!
1-
1.
0%
1E!
12
0/
13
00
#126000
0!
0-
0.
1%
#126500
1!
1-
1.
0%
1D!
0E!
14
03
02
1/
15
04
13
10
05
#127000
0!
0-
0.
1%
#127500
1!
1-
1.
0%
1E!
12
0/
14
03
00
15
#128000
0!
0-
0.
1%
#128500
1!
1-
1.
0%
1C!
0D!
0E!
16
05
04
13
02
1/
17
06
15
03
10
07
#129000
0!
0-
0.
1%
#129500
1!
1-
1.
0%
1E!
12
0/
13
00
#130000
0!
0-
0.
1%
#130500
1!
1-
1.
0%
1D!
0E!
14
03
02
1/
16
05
04
13
10
17
06
15
07
#131000
0!
0-
0.
1%
#131500
1!
1-
1.
0%
1E!
12
0/
14
03
00
16
05
17
#132000
0!
0-
0.
1%
#132500
1!
1-
1.
0%
1B!
0C!
0D!
0E!
18
07
1t
06
15
04
13
02
1/
19
08
17
05
03
10
09
#133000
0!
0-
0.
1%
#133500
1!
1-
1.
0%
1E!
12
0/
0t
13
00
#134000
0!
0-
0.
1%
#134500
1!
1-
1.
0%
1D!
0E!
14
03
02
1/
15
04
13
10
05
#135000
0!
0-
0.
1%
#135500
1!
1-
1.
0%
1E!
12
0/
14
03
00
15
#136000
0!
0-
0.
1%
#136500
1!
1-
1.
0%
1C!
0D!
0E!
16
05
04
13
02
1/
18
07
06
15
03
10
19
08
17
09
#137000
0!
0-
0.
1%
#137500
1!
1-
1.
0%
1E!
12
0/
13
00
#138000
0!
0-
0.
1%
#138500
1!
1-
1.
0%
1D!
0E!
14
03
02
1/
16
05
04
13
10
18
07
06
15
19
08
17
09
#139000
0!
0-
0.
1%
#139500
1!
1-
1.
0%
1E!
12
0/
14
03
00
16
05
18
07
19
#140000
0!
0-
0.
1%
#140500
1!
1-
1.
0%
1A!
0B!
0C!
0D!
0E!
1:
09
1q
08
17
06
15
04
13
02
1/
1;
0:
19
07
05
03
10
0;
#141000
0!
0-
0.
1%
#141500
1!
1-
1.
0%
1E!
12
0/
13
00
#142000
0!
0-
0.
1%
#142500
1!
1-
1.
0%
1D!
0E!
14
03
02
1/
15
04
13
10
05
#143000
0!
0-
0.
1%
#143500
1!
1-
1.
0%
1E!
12
0/
14
03
00
15
#144000
0!
0-
0.
1%
#144500
1!
1-
1.
0%
1C!
0D!
0E!
16
05
04
13
02
1/
17
06
15
03
10
07
#145000
0!
0-
0.
1%
#145500
1!
1-
1.
0%
1E!
12
0/
13
00
#146000
0!
0-
0.
1%
#146500
1!
1-
1.
0%
1D!
0E!
14
03
02
1/
16
05
04
13
10
17
06
15
07
#147000
0!
0-
0.
1%
#147500
1!
1-
1.
0%
1E!
12
0/
14
03
00
16
05
17
#148000
0!
0-
0.
1%
#148500
1!
1-
1.
0%
1B!
0C!
0D!
0E!
18
07
1t
06
15
04
13
02
1/
1:
09
08
17
05
03
1v
10
1;
0:
19
00
0w
0;
#149000
0!
0-
0.
1%
#149500
1!
1-
1.
0%
0x
0A!
0B!
1w
09
0q
07
0t
0v
10
0w
#150000
0!
0-
0.
1%
#150500
1!
1-
1.
0%
1E!
12
0/
13
00
#151000
0!
0-
0.
1%
#151500
1!
1-
1.
0%
1D!
0E!
14
03
02
1/
15
04
13
10
05
#152000
0!
0-
0.
1%
#152500
1!
1-
1.
0%
1E!
12
0/
14
03
00
15
#153000
0!
0-
0.
1%
#153500
1!
1-
1.
0%
1C!
0D!
0E!
16
05
04
13
02
1/
17
06
15
03
10
07
#154000
0!
0-
0.
1%
#154500
1!
1-
1.
0%
1E!
12
0/
13
00
#155000
0!
0-
0.
1%
#155500
1!
1-
1.
0%
1D!
0E!
14
03
02
1/
16
05
04
13
10
17
06
15
07
#156000
0!
0-
0.
1%
#156500
1!
1-
1.
0%
1E!
12
0/
14
03
00
16
05
17
#157000
0!
0-
0.
1%
#157500
1!
1-
1.
0%
1B!
0C!
0D!
0E!
18
07
1t
06
15
04
13
02
1/
19
08
17
05
03
10
09
#158000
0!
0-
0.
1%
#158500
1!
1-
1.
0%
1E!
12
0/
0t
13
00
#159000
0!
0-
0.
1%
#159500
1!
1-
1.
0%
1D!
0E!
14
03
02
1/
15
04
13
10
05
#160000
0!
0-
0.
1%
#160500
1!
1-
1.
0%
1E!
12
0/
14
03
00
15
#161000
0!
0-
0.
1%
#161500
1!
1-
1.
0%
1C!
0D!
0E!
16
05
04
13
02
1/
18
07
06
15
03
10
19
08
17
09
#162000
0!
0-
0.
1%
#162500
1!
1-
1.
0%
1E!
12
0/
13
00
#163000
0!
0-
0.
1%
#163500
1!
1-
1.
0%
1D!
0E!
14
03
02
1/
16
05
04
13
10
18
07
06
15
19
08
17
09
#164000
0!
0-
0.
1%
#164500
1!
1-
1.
0%
1E!
12
0/
14
03
00
16
05
18
07
19
#165000
0!
0-
0.
1%
#165500
1!
1-
1.
0%
1A!
0B!
0C!
0D!
0E!
1:
09
1q
08
17
06
15
04
13
02
1/
1;
0:
19
07
05
03
10
0;
#166000
0!
0-
0.
1%
#166500
1!
1-
1.
0%
1E!
12
0/
13
00
#167000
0!
0-
0.
1%
#167500
1!
1-
1.
0%
1D!
0E!
14
03
02
1/
15
04
13
10
05
#168000
0!
0-
0.
1%
#168500
1!
1-
1.
0%
1E!
12
0/
14
03
00
15
#169000
0!
0-
0.
1%
#169500
1!
1-
1.
0%
1C!
0D!
0E!
16
05
04
13
02
1/
17
06
15
03
10
07
#170000
0!
0-
0.
1%
#170500
1!
1-
1.
0%
1E!
12
0/
13
00
#171000
0!
0-
0.
1%
#171500
1!
1-
1.
0%
1D!
0E!
14
03
02
1/
16
05
04
13
10
17
06
15
07
#172000
0!
0-
0.
1%
#172500
1!
1-
1.
0%
1E!
12
0/
14
03
00
16
05
17
#173000
0!
0-
0.
1%
#173500
1!
1-
1.
0%
1B!
0C!
0D!
0E!
18
07
1t
06
15
04
13
02
1/
1:
09
08
17
05
03
1v
10
1;
0:
19
00
1w
0;
#174000
0!
0-
0.
1%
#174500
1!
1-
1.
0%
1x
0A!
0B!
0w
09
0q
07
0t
0v
10
1w
0G!
0!!
1F!
0|
0H!
0#!
1"!
1y
0#
#175000
0!
0-
0.
1%
#175500
1!
1-
1.
0%
1E!
12
0/
13
00
#176000
0!
0-
0.
1%
#176500
1!
1-
1.
0%
1D!
0E!
14
03
02
1/
15
04
13
10
05
#177000
0!
0-
0.
1%
#177500
1!
1-
1.
0%
1E!
12
0/
14
03
00
15
#178000
0!
0-
0.
1%
#178500
1!
1-
1.
0%
1C!
0D!
0E!
16
05
04
13
02
1/
17
06
15
03
10
07
#179000
0!
0-
0.
1%
#179500
1!
1-
1.
0%
1E!
12
0/
13
00
#180000
0!
0-
0.
1%
#180500
1!
1-
1.
0%
1D!
0E!
14
03
02
1/
16
05
04
13
10
17
06
15
07
#181000
0!
0-
0.
1%
#181500
1!
1-
1.
0%
1E!
12
0/
14
03
00
16
05
17
#182000
0!
0-
0.
1%
#182500
1!
1-
1.
0%
1B!
0C!
0D!
0E!
18
07
1t
06
15
04
13
02
1/
19
08
17
05
03
10
09
#183000
0!
0-
0.
1%
#183500
1!
1-
1.
0%
1E!
12
0/
0t
13
00
#184000
0!
0-
0.
1%
#184500
1!
1-
1.
0%
1D!
0E!
14
03
02
1/
15
04
13
10
05
#185000
0!
0-
0.
1%
#185500
1!
1-
1.
0%
1E!
12
0/
14
03
00
15
#186000
0!
0-
0.
1%
#186500
1!
1-
1.
0%
1C!
0D!
0E!
16
05
04
13
02
1/
18
07
06
15
03
10
19
08
17
09
#187000
0!
0-
0.
1%
