Numerical_and_Electrical_Experiment/THR2023063114/E8/simulation/qsim/THR2023063114.msim.vcd
$comment
	File created using the following command:
		vcd file THR2023063114.msim.vcd -direction
$end
$date
	Mon Nov 18 20:20:19 2024
$end
$version
	ModelSim Version 10.1d
$end
$timescale
	1ps
$end
$scope module sequence_generator_vlg_vec_tst $end
$var reg 1 ! clk $end
$var reg 1 " rst $end
$var wire 1 # sout $end
$var wire 1 $ sync $end
$var wire 1 % sampler $end
$scope module i1 $end
$var wire 1 & gnd $end
$var wire 1 ' vcc $end
$var wire 1 ( unknown $end
$var tri1 1 ) devclrn $end
$var tri1 1 * devpor $end
$var tri1 1 + devoe $end
$var wire 1 , ~QUARTUS_CREATED_GND~I_combout $end
$var wire 1 - clk~input_o $end
$var wire 1 . clk~inputCLKENA0_outclk $end
$var wire 1 / rst~input_o $end
$var wire 1 0 index[0]~2_combout $end
$var wire 1 1 index[0]~DUPLICATE_q $end
$var wire 1 2 index[1]~1_combout $end
$var wire 1 3 index[2]~0_combout $end
$var wire 1 4 sout~0_combout $end
$var wire 1 5 sout~reg0_q $end
$var wire 1 6 Equal0~0_combout $end
$var wire 1 7 sync~reg0_q $end
$var wire 1 8 index [2] $end
$var wire 1 9 index [1] $end
$var wire 1 : index [0] $end
$upscope $end
$upscope $end
$enddefinitions $end
#0
$dumpvars
0!
0"
0#
1$
x%
0&
1'
x(
1)
1*
1+
0,
0-
0.
0/
10
01
02
03
04
05
16
07
0:
09
08
$end
#10000
1!
1-
1.
0%
17
11
1:
12
00
14
0$
#20000
0!
0-
0.
1%
#30000
1!
1-
1.
0%
19
01
0:
15
04
10
1#
#40000
0!
0-
0.
1%
#50000
1!
1-
1.
0%
11
1:
05
02
13
00
14
0#
#60000
0!
0-
0.
1%
#70000
1!
1-
1.
0%
18
09
01
0:
15
04
10
1#
#80000
0!
0-
0.
1%
#90000
1!
1-
1.
0%
11
1:
05
12
00
14
0#
#100000
0!
0-
0.
1%
#110000
1!
1-
1.
0%
19
01
0:
15
10
1#
#120000
0!
0-
0.
1%
#130000
1!
1-
1.
0%
11
1:
02
03
00
04
06
#140000
0!
0-
0.
1%
#150000
1!
1-
1.
0%
07
08
09
01
0:
05
16
10
1$
0#
#160000
0!
0-
0.
1%
#170000
1!
1-
1.
0%
17
11
1:
12
00
14
0$
#180000
0!
0-
0.
1%
#190000
1!
1-
1.
0%
19
01
0:
15
04
10
1#
#200000
0!
0-
0.
1%
#210000
1!
1-
1.
0%
11
1:
05
02
13
00
14
0#
#220000
0!
0-
0.
1%
#230000
1!
1-
1.
0%
18
09
01
0:
15
04
10
1#
#240000
0!
0-
0.
1%
#250000
1!
1-
1.
0%
11
1:
05
12
00
14
0#
#260000
0!
0-
0.
1%
#270000
1!
1-
1.
0%
19
01
0:
15
10
1#
#280000
0!
0-
0.
1%
#290000
1!
1-
1.
0%
11
1:
02
03
00
04
06
#300000
0!
0-
0.
1%
#310000
1!
1-
1.
0%
07
08
09
01
0:
05
16
10
1$
0#
#320000
0!
0-
0.
1%
#330000
1!
1-
1.
0%
17
11
1:
12
00
14
0$
#340000
0!
0-
0.
1%
#350000
1!
1-
1.
0%
19
01
0:
15
04
10
1#
#360000
0!
0-
0.
1%
#370000
1!
1-
1.
0%
11
1:
05
02
13
00
14
0#
#380000
0!
0-
0.
1%
#390000
1!
1-
1.
0%
18
09
01
0:
15
04
10
1#
#400000
0!
0-
0.
1%
#410000
1!
1-
1.
0%
11
1:
05
12
00
14
0#
#420000
0!
0-
0.
1%
#430000
1!
1-
1.
0%
19
01
0:
15
10
1#
#440000
0!
0-
0.
1%
#450000
1!
1-
1.
0%
11
1:
02
03
00
04
06
#460000
0!
0-
0.
1%
#470000
1!
1-
1.
0%
07
08
09
01
0:
05
16
10
1$
0#
#480000
0!
0-
0.
1%
#490000
1!
1-
1.
0%
17
11
1:
12
00
14
0$
#500000
0!
0-
0.
1%
#510000
1!
1-
1.
0%
19
01
0:
15
04
10
1#
#520000
0!
0-
0.
1%
#530000
1!
1-
1.
0%
11
1:
05
02
13
00
14
0#
#540000
0!
0-
0.
1%
#550000
1!
1-
1.
0%
18
09
01
0:
15
04
10
1#
#560000
0!
0-
0.
1%
#570000
1!
1-
1.
0%
11
1:
05
12
00
14
0#
#580000
0!
0-
0.
1%
#590000
1!
1-
1.
0%
19
01
0:
15
10
1#
#600000
0!
0-
0.
1%
#610000
1!
1-
1.
0%
11
1:
02
03
00
04
06
#620000
0!
0-
0.
1%
#630000
1!
1-
1.
0%
07
08
09
01
0:
05
16
10
1$
0#
#640000
0!
0-
0.
1%
#650000
1!
1-
1.
0%
17
11
1:
12
00
14
0$
#660000
0!
0-
0.
1%
#670000
1!
1-
1.
0%
19
01
0:
15
04
10
1#
#680000
0!
0-
0.
1%
#690000
1!
1-
1.
0%
11
1:
05
02
13
00
14
0#
#700000
0!
0-
0.
1%
#710000
1!
1-
1.
0%
18
09
01
0:
15
04
10
1#
#720000
0!
0-
0.
1%
#730000
1!
1-
1.
0%
11
1:
05
12
00
14
0#
#740000
0!
0-
0.
1%
#750000
1!
1-
1.
0%
19
01
0:
15
10
1#
#760000
0!
0-
0.
1%
#770000
1!
1-
1.
0%
11
1:
02
03
00
04
06
#780000
0!
0-
0.
1%
#790000
1!
1-
1.
0%
07
08
09
01
0:
05
16
10
1$
0#
#800000
0!
0-
0.
1%
#810000
1!
1-
1.
0%
17
11
1:
12
00
14
0$
#820000
0!
0-
0.
1%
#830000
1!
1-
1.
0%
19
01
0:
15
04
10
1#
#840000
0!
0-
0.
1%
#850000
1!
1-
1.
0%
11
1:
05
02
13
00
14
0#
#860000
0!
0-
0.
1%
#870000
1!
1-
1.
0%
18
09
01
0:
15
04
10
1#
#880000
0!
0-
0.
1%
#890000
1!
1-
1.
0%
11
1:
05
12
00
14
0#
#900000
0!
0-
0.
1%
#910000
1!
1-
1.
0%
19
01
0:
15
10
1#
#920000
0!
0-
0.
1%
#930000
1!
1-
1.
0%
11
1:
02
03
00
04
06
#940000
0!
0-
0.
1%
#950000
1!
1-
1.
0%
07
08
09
01
0:
05
16
10
1$
0#
#960000
0!
0-
0.
1%
#970000
1!
1-
1.
0%
17
11
1:
12
00
14
0$
#980000
0!
0-
0.
1%
#990000
1!
1-
1.
0%
19
01
0:
15
04
10
1#
