Numerical_and_Electrical_Experiment/THR2023063114/TEST/simulation/qsim/THR2023063114.msim.vcd
$comment
	File created using the following command:
		vcd file THR2023063114.msim.vcd -direction
$end
$date
	Sat Nov 30 12:23:57 2024
$end
$version
	ModelSim Version 10.1d
$end
$timescale
	1ps
$end
$scope module THR2023063114_vlg_vec_tst $end
$var reg 1 ! clk $end
$var wire 1 " pin_name1 $end
$var wire 1 # pin_name2 $end
$var wire 1 $ pin_name3 $end
$var wire 1 % pin_name4 $end
$var wire 1 & sampler $end
$scope module i1 $end
$var wire 1 ' gnd $end
$var wire 1 ( vcc $end
$var wire 1 ) unknown $end
$var tri1 1 * devclrn $end
$var tri1 1 + devpor $end
$var tri1 1 , devoe $end
$var wire 1 - pin_name1~output_o $end
$var wire 1 . pin_name2~output_o $end
$var wire 1 / pin_name3~output_o $end
$var wire 1 0 pin_name4~output_o $end
$var wire 1 1 clk~input_o $end
$var wire 1 2 inst|sub|108~combout $end
$var wire 1 3 inst|sub|110~q $end
$var wire 1 4 inst|sub|92~combout $end
$var wire 1 5 inst|sub|87~q $end
$var wire 1 6 inst|sub|98~combout $end
$var wire 1 7 inst|sub|99~q $end
$var wire 1 8 inst|sub|75~combout $end
$var wire 1 9 inst|sub|9~q $end
$upscope $end
$upscope $end
$enddefinitions $end
#0
$dumpvars
0!
0"
0#
0$
0%
x&
0'
1(
x)
1*
1+
1,
0-
0.
0/
00
01
02
03
04
05
06
07
18
09
$end
#10000
1!
11
0&
19
14
08
1-
1"
#20000
0!
01
1&
#30000
1!
11
0&
09
15
18
0-
1.
0"
1#
#40000
0!
01
1&
#50000
1!
11
0&
19
04
16
08
1-
1"
#60000
0!
01
1&
#70000
1!
11
0&
09
17
05
18
0-
1/
0.
0"
1$
0#
#80000
0!
01
1&
#90000
1!
11
0&
19
14
08
1-
1"
#100000
0!
01
1&
#110000
1!
11
0&
09
15
18
0-
1.
0"
1#
#120000
0!
01
1&
#130000
1!
11
0&
19
12
04
06
08
1-
1"
#140000
0!
01
1&
#150000
1!
11
0&
09
07
05
13
18
0-
0/
0.
10
0"
0$
0#
1%
#160000
0!
01
1&
#170000
1!
11
0&
19
14
08
1-
1"
#180000
0!
01
1&
#190000
1!
11
0&
09
15
18
0-
1.
0"
1#
#200000
0!
01
1&
#210000
1!
11
0&
19
04
16
08
1-
1"
#220000
0!
01
1&
#230000
1!
11
0&
09
17
05
18
0-
1/
0.
0"
1$
0#
#240000
0!
01
1&
#250000
1!
11
0&
19
02
14
06
1-
1"
#260000
0!
01
1&
#270000
1!
11
0&
07
15
03
04
16
08
0/
1.
00
0$
1#
0%
#280000
0!
01
1&
#290000
1!
11
0&
09
17
05
18
0-
1/
0.
0"
1$
0#
#300000
0!
01
1&
#310000
1!
11
0&
19
14
08
1-
1"
#320000
0!
01
1&
#330000
1!
11
0&
09
15
18
0-
1.
0"
1#
#340000
0!
01
1&
#350000
1!
11
0&
19
12
04
06
08
1-
1"
#360000
0!
01
1&
#370000
1!
11
0&
09
07
05
13
18
0-
0/
0.
10
0"
0$
0#
1%
#380000
0!
01
1&
#390000
1!
11
0&
19
14
08
1-
1"
#400000
0!
01
1&
#410000
1!
11
0&
09
15
18
0-
1.
0"
1#
#420000
0!
01
1&
#430000
1!
11
0&
19
04
16
08
1-
1"
#440000
0!
01
1&
#450000
1!
11
0&
09
17
05
18
0-
1/
0.
0"
1$
0#
#460000
0!
01
1&
#470000
1!
11
0&
19
02
14
06
1-
1"
#480000
0!
01
1&
#490000
1!
11
0&
07
15
03
04
16
08
0/
1.
00
0$
1#
0%
#500000
0!
01
1&
#510000
1!
11
0&
09
17
05
18
0-
1/
0.
0"
1$
0#
#520000
0!
01
1&
#530000
1!
11
0&
19
14
08
1-
1"
#540000
0!
01
1&
#550000
1!
11
0&
09
15
18
0-
1.
0"
1#
#560000
0!
01
1&
#570000
1!
11
0&
19
12
04
06
08
1-
1"
#580000
0!
01
1&
#590000
1!
11
0&
09
07
05
13
18
0-
0/
0.
10
0"
0$
0#
1%
#600000
0!
01
1&
#610000
1!
11
0&
19
14
08
1-
1"
#620000
0!
01
1&
#630000
1!
11
0&
09
15
18
0-
1.
0"
1#
#640000
0!
01
1&
#650000
1!
11
0&
19
04
16
08
1-
1"
#660000
0!
01
1&
#670000
1!
11
0&
09
17
05
18
0-
1/
0.
0"
1$
0#
#680000
0!
01
1&
#690000
1!
11
0&
19
02
14
06
1-
1"
#700000
0!
01
1&
#710000
1!
11
0&
07
15
03
04
16
08
0/
1.
00
0$
1#
0%
#720000
0!
01
1&
#730000
1!
11
0&
09
17
05
18
0-
1/
0.
0"
1$
0#
#740000
0!
01
1&
#750000
1!
11
0&
19
14
08
1-
1"
#760000
0!
01
1&
#770000
1!
11
0&
09
15
18
0-
1.
0"
1#
#780000
0!
01
1&
#790000
1!
11
0&
19
12
04
06
08
1-
1"
#800000
0!
01
1&
#810000
1!
11
0&
09
07
05
13
18
0-
0/
0.
10
0"
0$
0#
1%
#820000
0!
01
1&
#830000
1!
11
0&
19
14
08
1-
1"
#840000
0!
01
1&
#850000
1!
11
0&
09
15
18
0-
1.
0"
1#
#860000
0!
01
1&
#870000
1!
11
0&
19
04
16
08
1-
1"
#880000
0!
01
1&
#890000
1!
11
0&
09
17
05
18
0-
1/
0.
0"
1$
0#
#900000
0!
01
1&
#910000
1!
11
0&
19
02
14
06
1-
1"
#920000
0!
01
1&
#930000
1!
11
0&
07
15
03
04
16
08
0/
1.
00
0$
1#
0%
#940000
0!
01
1&
#950000
1!
11
0&
09
17
05
18
0-
1/
0.
0"
1$
0#
#960000
0!
01
1&
#970000
1!
11
0&
19
14
08
1-
1"
#980000
0!
01
1&
#990000
1!
11
0&
09
15
18
0-
1.
0"
1#
