Numerical_and_Electrical_Experiment/THR2023063114/E5/simulation/qsim/THR2023063114.msim.vcd
$comment
	File created using the following command:
		vcd file THR2023063114.msim.vcd -direction
$end
$date
	Fri Nov 08 18:44:07 2024
$end
$version
	ModelSim Version 10.1d
$end
$timescale
	1ps
$end
$scope module THR2023063114_vlg_vec_tst $end
$var reg 1 ! a1 $end
$var reg 1 " a2 $end
$var reg 1 # a3 $end
$var reg 1 $ a4 $end
$var reg 1 % a5 $end
$var reg 1 & a6 $end
$var reg 1 ' a7 $end
$var reg 1 ( a8 $end
$var reg 1 ) a9 $end
$var wire 1 * LED1 $end
$var wire 1 + LED2 $end
$var wire 1 , LED3 $end
$var wire 1 - LED4 $end
$var wire 1 . OA $end
$var wire 1 / OB $end
$var wire 1 0 OC $end
$var wire 1 1 OD $end
$var wire 1 2 OE $end
$var wire 1 3 OF $end
$var wire 1 4 OG $end
$var wire 1 5 sampler $end
$scope module i1 $end
$var wire 1 6 gnd $end
$var wire 1 7 vcc $end
$var wire 1 8 unknown $end
$var tri1 1 9 devclrn $end
$var tri1 1 : devpor $end
$var tri1 1 ; devoe $end
$var wire 1 < ~QUARTUS_CREATED_GND~I_combout $end
$var wire 1 = a9~input_o $end
$var wire 1 > a7~input_o $end
$var wire 1 ? a8~input_o $end
$var wire 1 @ inst|7~1_combout $end
$var wire 1 A a2~input_o $end
$var wire 1 B a3~input_o $end
$var wire 1 C a5~input_o $end
$var wire 1 D a4~input_o $end
$var wire 1 E a6~input_o $end
$var wire 1 F inst|8~0_combout $end
$var wire 1 G inst|9~0_combout $end
$var wire 1 H a1~input_o $end
$var wire 1 I inst|7~0_combout $end
$var wire 1 J inst3|5~0_combout $end
$var wire 1 K inst3|82~0_combout $end
$var wire 1 L inst3|5~1_combout $end
$var wire 1 M inst3|85~combout $end
$var wire 1 N inst3|84~0_combout $end
$var wire 1 O inst3|86~0_combout $end
$var wire 1 P inst3|87~combout $end
$var wire 1 Q inst3|81~combout $end
$var wire 1 R inst|7~2_combout $end
$var wire 1 S inst|8~1_combout $end
$upscope $end
$upscope $end
$enddefinitions $end
#0
$dumpvars
0!
0"
0#
0$
0%
0&
0'
0(
0)
0*
0+
0,
0-
0.
0/
00
01
02
03
14
x5
06
17
x8
19
1:
1;
0<
0=
0>
0?
1@
0A
0B
0C
0D
0E
1F
0G
0H
1I
1J
0K
0L
0M
0N
0O
1P
0Q
0R
0S
$end
#100000
1)
1=
05
0@
0J
1-
1M
1N
1R
0P
12
11
1*
04
#200000
1(
0)
1?
0=
15
1@
0M
0N
0R
02
01
0*
#300000
1)
1=
05
0@
1M
1N
1R
12
11
1*
#400000
1'
0(
0)
1>
0?
0=
15
0F
1J
1G
0-
1,
1O
1P
1S
13
14
1+
#500000
1)
1=
05
0J
0G
1-
0,
0O
0P
0S
03
04
0+
#600000
1(
0)
1?
0=
15
1@
0M
0N
0R
02
01
0*
#700000
1)
1=
05
0@
1M
1N
1R
12
11
1*
#800000
1&
0'
0(
0)
1E
0>
0?
0=
15
1@
1J
1G
0-
1,
1K
0M
0N
1Q
0R
1S
1/
02
01
1.
0*
1+
#900000
1)
1=
05
0@
0J
0G
1-
0,
0K
1M
1N
0Q
1R
0S
0/
12
11
0.
1*
0+
