Numerical_and_Electrical_Experiment/THR2023063114/E4/simulation/qsim/E3.msim.vcd
$comment
	File created using the following command:
		vcd file E3.msim.vcd -direction
$end
$date
	Fri Nov 29 19:49:24 2024
$end
$version
	ModelSim Version 10.1d
$end
$timescale
	1ps
$end
$scope module E3_74153_vlg_vec_tst $end
$var reg 1 ! A $end
$var reg 1 " B $end
$var reg 1 # C $end
$var wire 1 $ OUTPUT $end
$var wire 1 % sampler $end
$scope module i1 $end
$var wire 1 & gnd $end
$var wire 1 ' vcc $end
$var wire 1 ( unknown $end
$var tri1 1 ) devclrn $end
$var tri1 1 * devpor $end
$var tri1 1 + devoe $end
$var wire 1 , OUTPUT~output_o $end
$var wire 1 - C~input_o $end
$var wire 1 . A~input_o $end
$var wire 1 / B~input_o $end
$var wire 1 0 inst|9~0_combout $end
$upscope $end
$upscope $end
$enddefinitions $end
#0
$dumpvars
0!
0"
0#
0$
x%
0&
1'
x(
1)
1*
1+
0,
0-
0.
0/
00
$end
#100000
1#
1-
0%
#200000
1"
0#
1/
0-
1%
#300000
1#
1-
0%
10
1,
1$
#400000
1!
0"
0#
1.
0/
0-
1%
00
0,
0$
#500000
1#
1-
0%
10
1,
1$
#600000
1"
0#
1/
0-
1%
#700000
1#
1-
0%
#800000
0!
0"
0#
0.
0/
0-
1%
00
0,
0$
#900000
1#
1-
0%
