Numerical_and_Electrical_Experiment/THR2023063114/E9/simulation/qsim/THR2023063114.msim.vcd
$comment
	File created using the following command:
		vcd file THR2023063114.msim.vcd -direction
$end
$date
	Fri Nov 29 10:47:59 2024
$end
$version
	ModelSim Version 10.1d
$end
$timescale
	1ps
$end
$scope module mo12_vlg_vec_tst $end
$var reg 1 ! cp $end
$var reg 1 " cr $end
$var wire 1 # EWG $end
$var wire 1 $ EWR $end
$var wire 1 % EWY $end
$var wire 1 & NSG $end
$var wire 1 ' NSR $end
$var wire 1 ( NSY $end
$var wire 1 ) sampler $end
$scope module i1 $end
$var wire 1 * gnd $end
$var wire 1 + vcc $end
$var wire 1 , unknown $end
$var tri1 1 - devclrn $end
$var tri1 1 . devpor $end
$var tri1 1 / devoe $end
$var wire 1 0 EWG~output_o $end
$var wire 1 1 EWY~output_o $end
$var wire 1 2 EWR~output_o $end
$var wire 1 3 NSG~output_o $end
$var wire 1 4 NSY~output_o $end
$var wire 1 5 NSR~output_o $end
$var wire 1 6 cp~input_o $end
$var wire 1 7 w90|41~0_combout $end
$var wire 1 8 cr~input_o $end
$var wire 1 9 w90|41~q $end
$var wire 1 : w90|40~q $end
$var wire 1 ; w90|39~q $end
$var wire 1 < w90|38~q $end
$var wire 1 = inst17|41~q $end
$var wire 1 > inst17|40~q $end
$var wire 1 ? w11~combout $end
$var wire 1 @ w10~0_combout $end
$var wire 1 A w10~1_combout $end
$var wire 1 B w10~2_combout $end
$upscope $end
$upscope $end
$enddefinitions $end
#0
$dumpvars
0!
1"
1#
0$
0%
0&
1'
0(
x)
0*
1+
x,
1-
1.
1/
10
01
02
03
04
15
06
17
18
09
0:
0;
0<
0=
0>
0?
0@
0A
0B
$end
#10000
1!
16
0)
19
#20000
0!
06
1)
#30000
1!
16
0)
1:
#40000
0!
06
1)
#50000
1!
16
0)
1;
#60000
0!
06
1)
#70000
1!
16
0)
1<
#80000
0!
06
1)
#90000
1!
16
0)
1=
1?
1@
00
11
0#
1%
#100000
0!
06
1)
#110000
1!
16
0)
1>
07
12
05
1$
0'
0@
1A
01
13
0%
1&
#120000
0!
06
1)
#130000
1!
16
0)
09
#140000
0!
06
1)
#150000
1!
16
0)
0:
#160000
0!
06
1)
#170000
1!
16
0)
0;
#180000
0!
06
1)
#190000
1!
16
0)
0<
#200000
0!
06
1)
#210000
1!
16
0)
0=
0A
1B
03
14
0&
1(
#220000
0!
06
1)
#230000
1!
16
0)
0>
17
0?
02
15
0$
1'
0B
10
04
1#
0(
#240000
0!
06
1)
#250000
1!
16
0)
19
#260000
0!
06
1)
#270000
1!
16
0)
1:
#280000
0!
06
1)
#290000
1!
16
0)
1;
#300000
0!
06
1)
#310000
1!
16
0)
1<
#320000
0!
06
1)
#330000
1!
16
0)
1=
1?
1@
00
11
0#
1%
#340000
0!
06
1)
#350000
1!
16
0)
1>
07
12
05
1$
0'
0@
1A
01
13
0%
1&
#360000
0!
06
1)
#370000
1!
16
0)
09
#380000
0!
06
1)
#390000
1!
16
0)
0:
#400000
0!
06
1)
#410000
1!
16
0)
0;
#420000
0!
06
1)
#430000
1!
16
0)
0<
#440000
0!
06
1)
#450000
1!
16
0)
0=
0A
1B
03
14
0&
1(
#460000
0!
06
1)
#470000
1!
16
0)
0>
17
0?
02
15
0$
1'
0B
10
04
1#
0(
#480000
0!
06
1)
#490000
1!
16
0)
19
#500000
0!
06
1)
#510000
1!
16
0)
1:
#520000
0!
06
1)
#530000
1!
16
0)
1;
#540000
0!
06
1)
#550000
1!
16
0)
1<
#560000
0!
06
1)
#570000
1!
16
0)
1=
1?
1@
00
11
0#
1%
#580000
0!
06
1)
#590000
1!
16
0)
1>
07
12
05
1$
0'
0@
1A
01
13
0%
1&
#600000
0!
06
1)
#610000
1!
16
0)
09
#620000
0!
06
1)
#630000
1!
16
0)
0:
#640000
0!
06
1)
#650000
1!
16
0)
0;
#660000
0!
06
1)
#670000
1!
16
0)
0<
#680000
0!
06
1)
#690000
1!
16
0)
0=
0A
1B
03
14
0&
1(
#700000
0!
06
1)
#710000
1!
16
0)
0>
17
0?
02
15
0$
1'
0B
10
04
1#
0(
#720000
0!
06
1)
#730000
1!
16
0)
19
#740000
0!
06
1)
#750000
1!
16
0)
1:
#760000
0!
06
1)
#770000
1!
16
0)
1;
#780000
0!
06
1)
#790000
1!
16
0)
1<
#800000
0!
06
1)
#810000
1!
16
0)
1=
1?
1@
00
11
0#
1%
#820000
0!
06
1)
#830000
1!
16
0)
1>
07
12
05
1$
0'
0@
1A
01
13
0%
1&
#840000
0!
06
1)
#850000
1!
16
0)
09
#860000
0!
06
1)
#870000
1!
16
0)
0:
#880000
0!
06
1)
#890000
1!
16
0)
0;
#900000
0!
06
1)
#910000
1!
16
0)
0<
#920000
0!
06
1)
#930000
1!
16
0)
0=
0A
1B
03
14
0&
1(
#940000
0!
06
1)
#950000
1!
16
0)
0>
17
0?
02
15
0$
1'
0B
10
04
1#
0(
#960000
0!
06
1)
#970000
1!
16
0)
19
#980000
0!
06
1)
#990000
1!
16
0)
1:
