Numerical_and_Electrical_Experiment/THR2023063114/E9/simulation/qsim/THR2023063114.msim.vcd
$comment
	File created using the following command:
		vcd file THR2023063114.msim.vcd -direction
$end
$date
	Sat Nov 30 21:00:43 2024
$end
$version
	ModelSim Version 10.1d
$end
$timescale
	1ps
$end
$scope module simu_vlg_vec_tst $end
$var reg 1 ! CLK_T1S $end
$var reg 1 " Rst_L $end
$var wire 1 # a0 $end
$var wire 1 $ a1 $end
$var wire 1 % a2 $end
$var wire 1 & a3 $end
$var wire 1 ' a4 $end
$var wire 1 ( a5 $end
$var wire 1 ) a6 $end
$var wire 1 * a7 $end
$var wire 1 + CLK_T4S $end
$var wire 1 , EWG $end
$var wire 1 - EWR $end
$var wire 1 . EWY $end
$var wire 1 / NSG $end
$var wire 1 0 NSR $end
$var wire 1 1 NSY $end
$var wire 1 2 sampler $end
$scope module i1 $end
$var wire 1 3 gnd $end
$var wire 1 4 vcc $end
$var wire 1 5 unknown $end
$var tri1 1 6 devclrn $end
$var tri1 1 7 devpor $end
$var tri1 1 8 devoe $end
$var wire 1 9 a0~output_o $end
$var wire 1 : a1~output_o $end
$var wire 1 ; a2~output_o $end
$var wire 1 < a3~output_o $end
$var wire 1 = a4~output_o $end
$var wire 1 > a5~output_o $end
$var wire 1 ? a6~output_o $end
$var wire 1 @ a7~output_o $end
$var wire 1 A EWG~output_o $end
$var wire 1 B EWY~output_o $end
$var wire 1 C EWR~output_o $end
$var wire 1 D NSG~output_o $end
$var wire 1 E NSY~output_o $end
$var wire 1 F NSR~output_o $end
$var wire 1 G CLK_T4S~output_o $end
$var wire 1 H CLK_T1S~input_o $end
$var wire 1 I inst1|inst1|10~combout $end
$var wire 1 J inst1|inst1|6~q $end
$var wire 1 K inst1|inst1|12~combout $end
$var wire 1 L inst1|inst1|8~q $end
$var wire 1 M inst1|inst1|47~0_combout $end
$var wire 1 N inst1|inst1|13~0_combout $end
$var wire 1 O inst1|inst1|9~q $end
$var wire 1 P inst1|inst1|11~combout $end
$var wire 1 Q inst1|inst1|7~q $end
$var wire 1 R Rst_L~input_o $end
$var wire 1 S inst1|inst|13~0_combout $end
$var wire 1 T inst1|inst|9~q $end
$var wire 1 U inst1|inst|11~combout $end
$var wire 1 V inst1|inst|7~q $end
$var wire 1 W inst1|inst|12~combout $end
$var wire 1 X inst1|inst|8~q $end
$var wire 1 Y inst1|inst|32~0_combout $end
$var wire 1 Z inst1|inst|6~q $end
$var wire 1 [ inst|count[0]~1_combout $end
$var wire 1 \ inst|count[1]~0_combout $end
$var wire 1 ] inst|LessThan0~0_combout $end
$var wire 1 ^ inst|Q~q $end
$var wire 1 _ inst2|w90|41~0_combout $end
$var wire 1 ` inst2|w90|41~q $end
$var wire 1 a inst2|w90|40~q $end
$var wire 1 b inst2|w90|39~q $end
$var wire 1 c inst2|w90|38~q $end
$var wire 1 d inst2|inst17|41~q $end
$var wire 1 e inst2|inst17|40~q $end
$var wire 1 f inst2|w11~combout $end
$var wire 1 g inst2|w10~0_combout $end
$var wire 1 h inst2|w10~1_combout $end
$var wire 1 i inst2|w10~2_combout $end
$var wire 1 j inst|count [1] $end
$var wire 1 k inst|count [0] $end
$upscope $end
$upscope $end
$enddefinitions $end
#0
$dumpvars
0!
0"
0#
0$
0%
0&
0'
0(
0)
0*
1+
1,
0-
0.
0/
10
01
x2
03
14
x5
16
17
18
09
0:
0;
0<
0=
0>
0?
0@
1A
0B
0C
0D
0E
1F
1G
0H
0I
0J
0K
0L
0M
0N
0O
0P
0Q
0R
0S
0T
0U
0V
0W
0X
1Y
0Z
1[
0\
1]
0^
1_
0`
0a
0b
0c
0d
0e
0f
0g
0h
0i
0k
0j
$end
#10000
1!
1H
02
1Z
19
1#
#20000
0!
0H
12
#30000
1!
1H
02
#40000
0!
0H
12
#50000
1"
1!
1R
1H
02
1U
0Y
#60000
0!
0H
12
#70000
1!
1H
02
1^
1k
0Z
1V
0[
1\
1Y
0G
09
1:
0+
0#
1$
#80000
0!
0H
12
#90000
1!
1H
02
1j
0k
1Z
1[
0U
1W
0Y
19
1#
#100000
0!
0H
12
#110000
1!
1H
02
1k
0Z
1X
0V
0[
0\
0]
1Y
09
1;
0:
0#
1%
0$
#120000
0!
0H
12
#130000
1!
1H
02
0^
0j
0k
1Z
1]
1[
1U
0Y
1G
19
1+
1#
1`
#140000
0!
0H
12
#150000
1!
1H
02
1^
1k
0Z
1V
0[
1\
1Y
0G
09
1:
0+
0#
1$
#160000
0!
0H
12
#170000
1!
1H
02
1j
0k
1Z
1[
1S
0U
0W
0Y
19
1#
#180000
0!
0H
12
#190000
1!
1H
02
1k
0Z
0X
0V
1T
0[
0\
0]
1Y
09
0;
0:
1<
0#
0%
0$
1&
#200000
0!
0H
12
#210000
1!
1H
02
0^
0j
0k
1Z
1]
1[
1I
1M
0S
0Y
1G
19
1+
1#
1a
#220000
0!
0H
12
#230000
1!
1H
02
1^
1k
0Z
0T
1J
0[
1\
0M
1Y
0G
09
0<
1=
0+
0#
0&
1'
#240000
0!
0H
12
#250000
1!
1H
02
1j
0k
1Z
1[
1U
0Y
19
1#
#260000
0!
0H
12
#270000
1!
1H
02
1k
0Z
1V
0[
0\
0]
1Y
09
1:
0#
1$
#280000
0!
0H
12
#290000
1!
1H
02
0^
0j
0k
1Z
1]
1[
0U
1W
0Y
1G
19
1+
1#
1b
#300000
0!
0H
12
#310000
1!
1H
02
1^
1k
0Z
1X
0V
0[
1\
1Y
0G
09
1;
0:
0+
0#
1%
0$
#320000
0!
0H
12
#330000
1!
1H
02
1j
0k
1Z
1[
1U
0Y
19
1#
#340000
0!
0H
12
#350000
1!
1H
02
1k
0Z
1V
0[
0\
0]
1Y
09
1:
0#
1$
#360000
0!
0H
12
#370000
1!
1H
02
0^
0j
0k
1Z
1]
1[
1S
0U
0W
0Y
1G
19
1+
1#
1c
#380000
0!
0H
12
#390000
1!
1H
02
1^
1k
0Z
0X
0V
1T
0[
1\
1Y
0G
09
0;
0:
1<
0+
0#
0%
0$
1&
#400000
0!
0H
12
#410000
1!
1H
02
1j
0k
1Z
1[
0I
1M
1P
0S
0Y
19
1#
#420000
0!
0H
12
#430000
1!
1H
02
1k
0Z
0T
1Q
0J
0[
0\
0]
0M
1Y
09
0<
1>
0=
0#
0&
1(
0'
#440000
0!
0H
12
#450000
1!
1H
02
0^
0j
0k
1Z
1]
1[
1U
0Y
1G
19
1+
1#
1d
1f
1g
0A
1B
0,
1.
#460000
0!
0H
12
#470000
1!
1H
02
1^
1k
0Z
1V
0[
1\
1Y
0G
09
1:
0+
0#
1$
#480000
0!
0H
12
#490000
1!
1H
02
1j
0k
1Z
1[
0U
1W
0Y
19
1#
#500000
0!
0H
12
#510000
1!
1H
02
1k
0Z
1X
0V
0[
0\
0]
0P
0W
1Y
09
1;
0:
0#
1%
0$
#520000
0!
0H
12
#530000
1!
1H
02
0^
0j
0k
1Z
0X
0Q
1]
1[
1U
0Y
1G
19
0;
0>
1+
1#
0%
0(
1e
0_
1C
0F
1-
00
0g
1h
0B
1D
0.
1/
#540000
0!
0H
12
#550000
1!
1H
02
1^
1k
0Z
1V
0[
1\
1Y
0G
09
1:
0+
0#
1$
#560000
0!
0H
12
#570000
1!
1H
02
1j
0k
1Z
1[
0U
1W
0Y
19
1#
#580000
0!
0H
12
#590000
1!
1H
02
1k
0Z
1X
0V
0[
0\
0]
1Y
09
1;
0:
0#
1%
0$
#600000
0!
0H
12
#610000
1!
1H
02
0^
0j
0k
1Z
1]
1[
1U
0Y
1G
19
1+
1#
0`
#620000
0!
0H
12
#630000
1!
1H
02
1^
1k
0Z
1V
0[
1\
1Y
0G
09
1:
0+
0#
1$
#640000
0!
0H
12
#650000
1!
1H
02
1j
0k
1Z
1[
1S
0U
0W
0Y
19
1#
#660000
0!
0H
12
#670000
1!
1H
02
1k
0Z
0X
0V
1T
0[
0\
0]
1Y
09
0;
0:
1<
0#
0%
0$
1&
#680000
0!
0H
12
#690000
1!
1H
02
0^
0j
0k
1Z
1]
1[
1I
1M
0S
0Y
1G
19
1+
1#
0a
#700000
0!
0H
12
#710000
1!
1H
02
1^
1k
0Z
0T
1J
0[
1\
0M
1Y
0G
09
0<
1=
0+
0#
0&
1'
#720000
0!
0H
12
#730000
1!
1H
02
1j
0k
1Z
1[
1U
0Y
19
1#
#740000
0!
0H
12
#750000
1!
1H
02
1k
0Z
1V
0[
0\
0]
1Y
09
1:
0#
1$
#760000
0!
0H
12
#770000
1!
1H
02
0^
0j
0k
1Z
1]
1[
0U
1W
0Y
1G
19
1+
1#
0b
#780000
0!
0H
12
#790000
1!
1H
02
1^
1k
0Z
1X
0V
0[
1\
1Y
0G
09
1;
0:
0+
0#
1%
0$
#800000
0!
0H
12
#810000
1!
1H
02
1j
0k
1Z
1[
1U
0Y
19
1#
#820000
0!
0H
12
#830000
1!
1H
02
1k
0Z
1V
0[
0\
0]
1Y
09
1:
0#
1$
#840000
0!
0H
12
#850000
1!
1H
02
0^
0j
0k
1Z
1]
1[
1S
0U
0W
0Y
1G
19
1+
1#
0c
#860000
0!
0H
12
#870000
1!
1H
02
1^
1k
0Z
0X
0V
1T
0[
1\
1Y
0G
09
0;
0:
1<
0+
0#
0%
0$
1&
#880000
0!
0H
12
#890000
1!
1H
02
1j
0k
1Z
1[
0I
1M
1P
0S
0Y
19
1#
#900000
0!
0H
12
#910000
1!
1H
02
1k
0Z
0T
1Q
0J
0[
0\
0]
0M
1Y
09
0<
1>
0=
0#
0&
1(
0'
#920000
0!
0H
12
#930000
1!
1H
02
0^
0j
0k
1Z
1]
1[
1U
0Y
1G
19
1+
1#
0d
0h
1i
0D
1E
0/
11
#940000
0!
0H
12
#950000
1!
1H
02
1^
1k
0Z
1V
0[
1\
1Y
0G
09
1:
0+
0#
1$
#960000
0!
0H
12
#970000
1!
1H
02
1j
0k
1Z
1[
0U
1W
0Y
19
1#
#980000
0!
0H
12
#990000
1!
1H
02
1k
0Z
1X
0V
0[
0\
0]
0P
0W
1Y
09
1;
0:
0#
1%
0$
